C:\Users\taibuix\eclipse-workspace\helloworld\src\main\java\com\tai\bui\dao\UserDao.java
C:\Users\taibuix\eclipse-workspace\helloworld\src\main\java\com\tai\bui\model\User.java
C:\Users\taibuix\eclipse-workspace\helloworld\src\main\java\com\tai\bui\utils\JDBCConnection.java
C:\Users\taibuix\eclipse-workspace\helloworld\src\main\java\com\tai\bui\action\UserAction.java
